[SET]
	<STRING>NAME:BERSERKER_TRINKETS_HUNTER
	<TRANSLATE>DISPLAYNAME:Hunter
	[AFFIX]
		<INTEGER>COUNT:2
		<INTEGER>AFFIXLEVEL:1
		<STRING>AFFIX:UNIQUE_TL2_EXECUTE2
	[/AFFIX]
	[AFFIX]
		<INTEGER>COUNT:3
		<INTEGER>AFFIXLEVEL:1
		<STRING>AFFIX:UNIQUE_CRIT_CHANCE5
	[/AFFIX]
[/SET]
