[SET]
	<STRING>NAME:CLOVENHOOF_big
	<TRANSLATE>DISPLAYNAME:Clovenhoof
	[AFFIX]
		<INTEGER>COUNT:2
		<INTEGER>AFFIXLEVEL:17
		<STRING>AFFIX:UNIQUE_ARMOR_PERCENT_BONUS
	[/AFFIX]
	[AFFIX]
		<INTEGER>COUNT:3
		<INTEGER>AFFIXLEVEL:17
		<STRING>AFFIX:SET_CAST_SPEED
	[/AFFIX]
	[AFFIX]
		<INTEGER>COUNT:4
		<INTEGER>AFFIXLEVEL:17
		<STRING>AFFIX:UNIQUE_ARMOR_PERCENT_BONUS2
	[/AFFIX]
	[AFFIX]
		<INTEGER>COUNT:5
		<INTEGER>AFFIXLEVEL:17
		<STRING>AFFIX:SET_CAST_SPEED2
	[/AFFIX]
	[AFFIX]
		<INTEGER>COUNT:6
		<INTEGER>AFFIXLEVEL:17
		<STRING>AFFIX:UNIQUE_POTION_EFFICIENCY9
	[/AFFIX]
[/SET]
