[SET]
	<STRING>NAME:DWARFKING
	<TRANSLATE>DISPLAYNAME:Dwarfking
	[AFFIX]
		<INTEGER>COUNT:2
		<INTEGER>AFFIXLEVEL:46
		<STRING>AFFIX:SET_BLOCK_CHANCE
	[/AFFIX]
	[AFFIX]
		<INTEGER>COUNT:3
		<INTEGER>AFFIXLEVEL:46
		<STRING>AFFIX:SET_ATTACK_SPEED
	[/AFFIX]
	[AFFIX]
		<INTEGER>COUNT:4
		<INTEGER>AFFIXLEVEL:46
		<STRING>AFFIX:UNIQUE_MELEE_DAMAGE_BONUS2
	[/AFFIX]
	[AFFIX]
		<INTEGER>COUNT:5
		<INTEGER>AFFIXLEVEL:46
		<STRING>AFFIX:UNIQUE_ARMOR_PERCENT_BONUS2
	[/AFFIX]
	[AFFIX]
		<INTEGER>COUNT:6
		<INTEGER>AFFIXLEVEL:46
		<STRING>AFFIX:SET_LIFE_STEAL3
	[/AFFIX]
	[AFFIX]
		<INTEGER>COUNT:7
		<INTEGER>AFFIXLEVEL:46
		<STRING>AFFIX:UNIQUE_DIRECT_BURN_PERCENT_ALWAYS
	[/AFFIX]
[/SET]
