[SET]
	<STRING>NAME:ESTHERIA
	<TRANSLATE>DISPLAYNAME:Estheria
	[AFFIX]
		<INTEGER>COUNT:2
		<INTEGER>AFFIXLEVEL:20
		<STRING>AFFIX:UNIQUE_CAST_SPEED
	[/AFFIX]
	[AFFIX]
		<INTEGER>COUNT:3
		<INTEGER>AFFIXLEVEL:20
		<STRING>AFFIX:UNIQUE_MANA_PERCENT_BONUS2
	[/AFFIX]
	[AFFIX]
		<INTEGER>COUNT:4
		<INTEGER>AFFIXLEVEL:20
		<STRING>AFFIX:UNIQUE_TL2_OF_PERCENT_ALL_ELEMENTS3
	[/AFFIX]
[/SET]
