[SET]
	<STRING>NAME:EZROHIR
	<TRANSLATE>DISPLAYNAME:Ezrohir
	[AFFIX]
		<INTEGER>COUNT:2
		<INTEGER>AFFIXLEVEL:38
		<STRING>AFFIX:SET_DAMAGE_BONUS
	[/AFFIX]
	[AFFIX]
		<INTEGER>COUNT:3
		<INTEGER>AFFIXLEVEL:38
		<STRING>AFFIX:UNIQUE_MELEE_DAMAGE_BONUS
	[/AFFIX]
	[AFFIX]
		<INTEGER>COUNT:4
		<INTEGER>AFFIXLEVEL:38
		<STRING>AFFIX:SET_MISSILE_REFLECT2
	[/AFFIX]
	[AFFIX]
		<INTEGER>COUNT:5
		<INTEGER>AFFIXLEVEL:38
		<STRING>AFFIX:SET_CRIT_CHANCE2
	[/AFFIX]
	[AFFIX]
		<INTEGER>COUNT:6
		<INTEGER>AFFIXLEVEL:38
		<STRING>AFFIX:UNIQUE_HEALTH_PERCENT_BONUS3
	[/AFFIX]
	[AFFIX]
		<INTEGER>COUNT:7
		<INTEGER>AFFIXLEVEL:38
		<STRING>AFFIX:UNIQUE_ARMOR_PERCENT_BONUS9
	[/AFFIX]
[/SET]
