[SET]
	<STRING>NAME:U_FERAL
	<TRANSLATE>DISPLAYNAME:Feral
	[AFFIX]
		<INTEGER>COUNT:2
		<INTEGER>AFFIXLEVEL:45
		<STRING>AFFIX:UNIQUE_TL2_SPLASH2
	[/AFFIX]
	[AFFIX]
		<INTEGER>COUNT:3
		<INTEGER>AFFIXLEVEL:45
		<STRING>AFFIX:UNIQUE_TL2_CHARGERATEBONUS2
	[/AFFIX]
	[AFFIX]
		<INTEGER>COUNT:4
		<INTEGER>AFFIXLEVEL:45
		<STRING>AFFIX:UNIQUE_TL2_SPLASH5
	[/AFFIX]
	[AFFIX]
		<INTEGER>COUNT:5
		<INTEGER>AFFIXLEVEL:50
		<STRING>AFFIX:UNIQUE_TL2_CHARGERATEBONUS5
	[/AFFIX]
	[AFFIX]
		<INTEGER>COUNT:6
		<INTEGER>AFFIXLEVEL:45
		<STRING>AFFIX:SET_LIFE_STEAL5
	[/AFFIX]
[/SET]
