[SET]
	<STRING>NAME:U_INCUBUS
	<TRANSLATE>DISPLAYNAME:Incubus
	[AFFIX]
		<INTEGER>COUNT:2
		<INTEGER>AFFIXLEVEL:55
		<STRING>AFFIX:UNIQUE_PET_ARMOR
	[/AFFIX]
	[AFFIX]
		<INTEGER>COUNT:3
		<INTEGER>AFFIXLEVEL:55
		<STRING>AFFIX:SET_MAX_MANA2
	[/AFFIX]
	[AFFIX]
		<INTEGER>COUNT:4
		<INTEGER>AFFIXLEVEL:55
		<STRING>AFFIX:UNIQUE_PET_DAMAGE3
	[/AFFIX]
	[AFFIX]
		<INTEGER>COUNT:5
		<INTEGER>AFFIXLEVEL:55
		<STRING>AFFIX:SET_MISSILE_REFLECT3
	[/AFFIX]
	[AFFIX]
		<INTEGER>COUNT:6
		<INTEGER>AFFIXLEVEL:55
		<STRING>AFFIX:UNIQUE_CAST_SPEED5
	[/AFFIX]
	[AFFIX]
		<INTEGER>COUNT:7
		<INTEGER>AFFIXLEVEL:60
		<STRING>AFFIX:SET_MANA_STEAL5
	[/AFFIX]
[/SET]
