[SET]
	<STRING>NAME:U_PLAINSLORD
	<TRANSLATE>DISPLAYNAME:Plainslord
	[AFFIX]
		<INTEGER>COUNT:2
		<INTEGER>AFFIXLEVEL:31
		<STRING>AFFIX:SET_CRIT_CHANCE
	[/AFFIX]
	[AFFIX]
		<INTEGER>COUNT:3
		<INTEGER>AFFIXLEVEL:31
		<STRING>AFFIX:UNIQUE_TL2_SILENCE2
	[/AFFIX]
	[AFFIX]
		<INTEGER>COUNT:4
		<INTEGER>AFFIXLEVEL:31
		<STRING>AFFIX:SET_OFFLAME3
	[/AFFIX]
	[AFFIX]
		<INTEGER>COUNT:5
		<INTEGER>AFFIXLEVEL:31
		<STRING>AFFIX:SET_LIFE_STEAL5
	[/AFFIX]
[/SET]
