[SET]
	<STRING>NAME:U_SPELLWEAVER
	<TRANSLATE>DISPLAYNAME:Spellweaver
	[AFFIX]
		<INTEGER>COUNT:2
		<INTEGER>AFFIXLEVEL:31
		<STRING>AFFIX:SET_CRIT_CHANCE
	[/AFFIX]
	[AFFIX]
		<INTEGER>COUNT:3
		<INTEGER>AFFIXLEVEL:31
		<STRING>AFFIX:SET_CAST_SPEED2
	[/AFFIX]
	[AFFIX]
		<INTEGER>COUNT:4
		<INTEGER>AFFIXLEVEL:31
		<STRING>AFFIX:SET_MAX_MANA3
	[/AFFIX]
	[AFFIX]
		<INTEGER>COUNT:5
		<INTEGER>AFFIXLEVEL:31
		<STRING>AFFIX:SET_KNOCKBACK5
	[/AFFIX]
[/SET]
