[SET]
	<STRING>NAME:U_WANDERLUST
	<TRANSLATE>DISPLAYNAME:Wanderlust
	[AFFIX]
		<INTEGER>COUNT:2
		<INTEGER>AFFIXLEVEL:19
		<STRING>AFFIX:UNIQUE_MISSILE_RANGE_BONUS
	[/AFFIX]
	[AFFIX]
		<INTEGER>COUNT:3
		<INTEGER>AFFIXLEVEL:19
		<STRING>AFFIX:UNIQUE_KNOCKBACK2
	[/AFFIX]
	[AFFIX]
		<INTEGER>COUNT:4
		<INTEGER>AFFIXLEVEL:19
		<STRING>AFFIX:UNIQUE_ATTACK_SPEED3
	[/AFFIX]
[/SET]
